<?xml version="1.0" encoding="utf-8"?>
<!-- Generator: Adobe Illustrator 17.0.0, SVG Export Plug-In . SVG Version: 6.00 Build 0)  -->
<!DOCTYPE svg PUBLIC "-//W3C//DTD SVG 1.1//EN" "http://www.w3.org/Graphics/SVG/1.1/DTD/svg11.dtd">
<svg version="1.1" id="Layer_1" xmlns="http://www.w3.org/2000/svg" xmlns:xlink="http://www.w3.org/1999/xlink" x="0px" y="0px"
	 width="505px" height="152px" viewBox="-2.5 0 505 152" enable-background="new -2.5 0 505 152" xml:space="preserve">
<path fill="#FFFFFF" d="M75.903,2.139C35.176,2.117,2.022,35.232,2,75.96c-0.022,40.728,33.094,73.88,73.821,73.902
	c40.729,0.024,73.881-33.092,73.903-73.82C149.747,35.314,116.631,2.161,75.903,2.139 M85.311,95.634H68.012l-0.025-5.185
	l5.186-11.527c-3.487-1.407-5.952-4.81-5.952-8.8c0-5.244,4.252-9.497,9.497-9.497c5.247,0,9.5,4.253,9.5,9.497
	c0,3.99-2.468,7.393-5.953,8.8l5.022,11.562L85.311,95.634z M100.822,103.401c-4.217,4.216-44.427,43.823-44.427,43.823
	s5.077-4.781,14.172-13.879c6.559-6.557-9.498-21.492-17.952-29.944c-4.218-4.218-14.764-15.691-12.654-31.948
	c2.11-16.259,14.764-32.831,36.759-33.132c21.993,0.301,34.648,16.872,36.757,33.132C115.586,87.71,105.04,99.183,100.822,103.401"
	/>
<path fill="#FFFFFF" d="M485.121,81.596c8.259,0,14.879,6.623,14.879,14.879c0,8.184-6.62,14.879-14.879,14.879h-10.416v14.88
	l4.465,0.744v6.696h-17.856v-6.696l4.464-0.744V89.037l-4.464-0.744v-6.697H485.121z M442.346,118.052h-14.954l-2.528,8.183
	l4.463,0.745v6.695h-17.855v-6.695l4.464-0.745l11.903-37.197l-4.465-0.744v-6.697h16.369l14.134,44.638l4.463,0.745v6.695h-17.854
	v-6.695l4.463-0.745L442.346,118.052z M429.997,109.868h9.82l-4.911-15.623L429.997,109.868z M380.23,110.611v15.623l4.464,0.744
	v6.695h-17.855v-6.695l4.463-0.744V89.037l-4.463-0.744v-6.697h24.105c8.108,0,14.581,6.474,14.581,14.508
	c0,6.027-3.721,11.532-9.375,13.764c1.191,0.967,2.009,2.156,2.678,3.942l4.687,12.425l4.984,0.744v6.695h-11.904l-5.578-16.367
	c-1.785-5.283-6.176-6.696-8.183-6.696C382.834,110.611,380.23,110.611,380.23,110.611z M396.596,95.361
	c0-3.126-2.529-5.58-5.651-5.58H380.23v12.647h10.715c3.122,0,5.651-2.455,5.651-5.58V95.361z M335.968,126.979l4.465-0.744V89.781
	h-7.069l-0.743,5.207h-6.696v-13.39h37.943v13.391h-6.697l-0.743-5.207h-7.068v36.454l4.464,0.744v6.695h-17.855L335.968,126.979
	L335.968,126.979z M283.523,81.596h25.293c7.663,0,14.136,6.176,14.136,13.765v19.713c0,10.416-8.109,18.599-18.599,18.599h-20.83
	v-6.695l4.463-0.744V89.037l-4.463-0.743V81.596z M296.915,89.782v35.709h6.695c5.655,0,10.415-4.686,10.415-10.416V95.361
	c0-3.126-2.901-5.58-5.951-5.58C308.074,89.782,296.915,89.782,296.915,89.782z M262.697,81.596h17.855v6.697l-4.464,0.744v44.637
	h-8.928l-19.342-34.966v27.527l4.464,0.744v6.696h-17.855v-6.696l4.463-0.744V89.037l-4.463-0.744v-6.697h13.391l19.342,34.966
	V89.037l-4.463-0.744L262.697,81.596L262.697,81.596z M226.988,126.235l4.464,0.744v6.696h-17.855v-6.696l4.463-0.744V89.037
	l-4.463-0.743v-6.697h17.855v6.697l-4.464,0.743V126.235z M197.979,81.596h12.648v6.697l-4.463,0.744v37.197l4.463,0.744v6.696
	h-17.855v-6.696l4.463-0.744V99.453l-10.788,18.599L175.66,99.453v26.782l4.464,0.744v6.696H162.27v-6.696l4.463-0.744V89.037
	l-4.463-0.744v-6.697h12.647l11.531,20.086L197.979,81.596z M251.549,18.324h36.454v12.647h-6.697l-0.744-4.463H264.94v11.903
	h12.647l0.745-2.975h6.695v15.623h-6.695l-0.745-4.463H264.94v15.622h15.623l0.744-5.206h6.697v13.39H251.55v-6.696l4.463-0.744
	V25.763l-4.463-0.743L251.549,18.324L251.549,18.324z M230.722,18.324h17.856v6.696l-4.464,0.743v37.198l4.464,0.744v6.696h-17.856
	v-6.696l4.463-0.744V46.595h-18.598v16.366l4.464,0.744v6.696h-17.854v-6.696l4.463-0.744V25.763l-4.463-0.743v-6.696h17.854v6.696
	l-4.464,0.743v12.648h18.598V25.763l-4.463-0.743V18.324z M172.324,63.706l4.463-0.744V26.508h-7.067l-0.743,5.207h-6.696V18.324
	h37.942v13.391h-6.695l-0.744-5.207h-7.068v36.454l4.464,0.744v6.695h-17.855v-6.695C172.325,63.706,172.324,63.706,172.324,63.706z
	 M491.071,95.732c0-3.347-2.678-5.951-5.951-5.951h-10.416v13.392h10.416c3.273,0,5.951-2.605,5.951-5.953L491.071,95.732
	L491.071,95.732z"/>
</svg>
